…
│ memory   │ tables    │ name               │ VARCHAR   │        2 │         │
│ memory   │ tables    │ uuid               │ UUID      │        3 │         │
│ memory   │ tables    │ engine             │ VARCHAR   │        4 │         │
│ memory   │ tables    │ is_temporary       │ BOOLEAN   │        5 │         │
│ memory   │ tables    │ column_names       │ VARCHAR[] │        6 │         │
│ memory   │ tables    │ column_types       │ VARCHAR[] │        7 │         │
│ memory   │ tables    │ create_table_query │ VARCHAR   │        8 │         │
│ memory   │ tables    │ comment            │ VARCHAR   │        9 │         │
├──────────┴───────────┴────────────────────┴───────────┴──────────┴─────────┤
│ 24 rows                                                          6 columns │
└────────────────────────────────────────────────────────────────────────────┘
D 
D -- List all functions in scope
D SELECT * FROM system.functions;
┌──────────────────────┬──────────────┬──────────────────┬────────────────────────────────────────────────────────────────────────────────────────────────┐
│         name         │ is_aggregate │ case_insensitive │                                          description                                           │
│       varchar        │   boolean    │     boolean      │                                            varchar                                             │
├──────────────────────┼──────────────┼──────────────────┼────────────────────────────────────────────────────────────────────────────────────────────────┤
│ pragma_version       │ false        │ false            │ NULL                                                                                           │
│ repeat_row           │ false        │ false            │ NULL                                                                                           │
│ duckdb_constraints   │ false        │ false            │ NULL                                                                                           │
│ duckdb_extensions    │ false        │ false            │ NULL                                                                                           │
│ duckdb_functions     │ false        │ false            │ NULL                                                                                           │
│ summary              │ false        │ false            │ NULL                                                                                           │
│ system_columns       │ false        │ false            │ NULL                                                                                           │
│ test_all_types       │ false        │ false            │ NULL                                                                                           │
│ duckdb_sequences     │ false        │ false            │ NULL                                                                                           │
│ list_indexof         │ false        │ false            │ NULL                                                                                           │
│ try_strptime         │ false        │ false            │ Converts string to timestamp using the format string (timestamp with time zone if %Z is spec…  │
│ list_sort            │ false        │ false            │ Sorts the elements of the list                                                                 │
│ list_pack            │ false        │ false            │ Create a LIST containing the argument values                                                   │
│ list_negative_inne…  │ false        │ false            │ Compute the negative inner product between two lists                                           │
│ get_current_timest…  │ false        │ false            │ Returns the current timestamp                                                                  │
│ unhex                │ false        │ false            │ Converts a value from hexadecimal representation to a blob                                     │
│ get_bit              │ false        │ false            │ Extracts the nth bit from bitstring; the first (leftmost) bit is indexed 0                     │
│ union_extract        │ false        │ false            │ Extract the value with the named tags from the union. NULL if the tag is not currently selec…  │
│ from_base64          │ false        │ false            │ Convert a base64 encoded string to a character string                                          │
│ last_day             │ false        │ false            │ Returns the last day of the month                                                              │
│  ·                   │   ·          │   ·              │                 ·                                                                              │
│  ·                   │   ·          │   ·              │                 ·                                                                              │
│  ·                   │   ·          │   ·              │                 ·                                                                              │
│ mad                  │ false        │ false            │ Returns the median absolute deviation for the values within x. NULL values are ignored. Temp…  │
│ max                  │ false        │ false            │ Returns the maximum value present in arg.                                                      │
│ arg_max_null         │ false        │ false            │ Finds the row with the maximum val. Calculates the arg expression at that row.                 │
│ disable_profiling    │ false        │ false            │ NULL                                                                                           │
│ disable_profile      │ false        │ false            │ NULL                                                                                           │
│ disable_checkpoint…  │ false        │ false            │ NULL                                                                                           │
│ enable_profiling     │ false        │ false            │ NULL                                                                                           │
│ verify_parallelism   │ false        │ false            │ NULL                                                                                           │
│ session_user         │ false        │ false            │ NULL                                                                                           │
│ list_max             │ false        │ false            │ NULL                                                                                           │
│ list_skewness        │ false        │ false            │ NULL                                                                                           │
│ pg_postmaster_star…  │ false        │ false            │ NULL                                                                                           │
│ pg_table_is_visible  │ false        │ false            │ NULL                                                                                           │
│ has_foreign_data_w…  │ false        │ false            │ NULL                                                                                           │
│ has_sequence_privi…  │ false        │ false            │ NULL                                                                                           │
│ has_tablespace_pri…  │ false        │ false            │ NULL                                                                                           │
│ pg_conversion_is_v…  │ false        │ false            │ NULL                                                                                           │
│ list_count           │ false        │ false            │ NULL                                                                                           │
│ list_first           │ false        │ false            │ NULL                                                                                           │
│ array_reverse        │ false        │ false            │ NULL                                                                                           │
├──────────────────────┴──────────────┴──────────────────┴────────────────────────────────────────────────────────────────────────────────────────────────┤
│ 692 rows (40 shown)                                                                                                                           4 columns │
└─────────────────────────────────────────────────────────────────────────────────────────────────────────────────────────────────────────────────────────┘
```
